<?xml version="1.0"?>
<robot xmlns:xacro="http://wiki.ros.org/xacro"
       name="ur5" >

  <xacro:arg name="transmission_hw_interface" default="hardware_interface/PositionJointInterface"/>

  <!-- common stuff -->
  <xacro:include filename="$(find ur_description)/urdf/common.gazebo.xacro" />

  <!-- ur5 -->
  <xacro:include filename="$(find ur_description)/urdf/ur5.urdf.xacro" />
  <xacro:include filename="$(find ur5_robot)/urdf/sensors/kinect.urdf.xacro"/>
  <!-- arm -->
  <xacro:ur5_robot prefix="" joint_limited="false"
    transmission_hw_interface="$(arg transmission_hw_interface)"
  />

  <link name="world" />

  <joint name="world_joint" type="fixed">
    <parent link="world" />
    <child link = "base_link" />
    <origin xyz="0.0 0.0 0.0" rpy="0.0 0.0 0.0" />
  </joint>
  <sensor_kinect  parent="world"/>

</robot>
